Beyond the Prompt
…
Three prompts, three quiet problems

Prompt 1: “Join these two tables”

Two tables whose keys are duplicated in ways we might not expect:

library(tidyverse)

df_1 <- tibble(id = c(1:50, 51, 51, 51, 52:100))
df_2 <- tibble(id = c(1:20, 21, 21, 21, 21, 22:200))

df_1 |>
  left_join(df_2, join_by(id))

# A tibble: 105 × 1
      id
   <dbl>
 1     1
 2     2
 3     3
 4     4
 5     5
 6     6
 7     7
 8     8
 9     9
10    10
# ℹ 95 more rows
…
