Open Secrets: Foreign-Connected PAC Contributions
…
library(tidyverse)
library(janitor)

a. Load and stack the data

Each CSV covers one election cycle and is named with the cycle’s year range (e.g. Foreign Connected PACs, 1999-2000.csv). Passing the vector of file paths to a single read_csv() call stacks them, and the id argument records which file each row came from so we can recover the year.

files <- list.files("data", full.names = TRUE)

pac_raw <- read_csv(files, id = "file")

pac_raw

# A tibble: 2,639 × 6
   file         `PAC Name (Affiliate)` Country of Origin/Pa…¹ Total Dems  Repubs
   <chr>        <chr>                  <chr>                  <chr> <chr> <chr> 
 1 data/Foreig… 7-Eleven               Japan/Ito-Yokado       $8,5… $1,5… $7,000
 2 data/Foreig… ABB Group              Switzerland/Asea Brow… $46,… $17,… $28,5…
 3 data/Foreig… Accenture              UK/Accenture plc       $75,… $23,… $52,9…
 4 data/Foreig… ACE INA                UK/ACE Group           $38,… $12,… $26,0…
 5 data/Foreig… Acuson Corp (Siemens … Germany/Siemens AG     $2,0… $2,0… $0    
 6 data/Foreig… Adtranz (DaimlerChrys… Germany/DaimlerChrysl… $10,… $10,… $500  
 7 data/Foreig… AE Staley Manufacturi… UK/Tate & Lyle         $24,… $10,… $14,0…
 8 data/Foreig… AEGON USA (AEGON NV)   Netherlands/Aegon NV   $58,… $10,… $47,7…
 9 data/Foreig… AIM Management Group   UK/AMVESCAP            $25,… $10,… $15,0…
10 data/Foreig… Air Liquide America    France/L'Air Liquide … $0    $0    $0    
# ℹ 2,629 more rows
# ℹ abbreviated name: ¹​`Country of Origin/Parent Company`
…
